{
  "nam": "Nam",
  "hoa": "Hoa",
  "long": "Long",
  "phúc": "Phúc",
  "phát": "Phát",
  "giang": "Giang",
  "ly": "ly",
  "hà": "Hà",
  "phụng": "Phụng",
  "hoàng": "Hoàng",
  "cúc": "Cúc",
  "đức": "Đức",
  "tuấn": "Tuấn",
  "bình": "Bình",
  "lĩnh": "Lĩnh",
  "viễn": "Viễn",
  "duy": "Duy",
  "tú": "Tú",
  "tâm": "Tâm",
  "xuân": "Xuân",
  "kiều": "Kiều",
  "thành": "Thành",
  "đăng": "Đăng",
  "đạt": "Đạt",
  "vy": "Vy",
  "loan": "Loan",
  "luân": "Luân",
  "quang": "Quang",
  "thuận": "Thuận",
  "trọng": "Trọng",
  "an": "An",
  "kim": "Kim",
  "hằng": "Hằng",
  "cường": "Cường",
  "phú": "Phú",
  "thiện": "Thiện"
}