{
  "lookup": {
    "eJyLrq6NBQAEOAGx": "action_listen",
    "eJyLrq7VUaguKEoti09MLsnMz7NSqIYw4vMSc1OtFKCcnMziktQ8oNrS4tQioJrMPCC3xEohvSg1taS2NhYA6dwbhQ==": "utter_ask_name",
    "eJyLrq7VUaguKEoti09MLsnMz7NSqIYw4vMSc1OtFKCcnMziktQ8oNrS4tQioJrMPCC3xEohvSg1taSWgBmlJSWpRfGJxdlgPk5DYgHjzjW/": "action_listen",
    "eJyLrq7VUaguKEoti09MLsnMz7NSqIYw4vMSc1OtFKCcnMziktQ8oNrS4tQioJrMPCC3xEohvSg1taSWgBmlJSWpRfGJxdlgPpmGEHBIYl5xOdASsAW1sQCD2FIM": "utter_greet_with_name",
    "eJyLrq7VUaguKEoti09MLsnMz7NSqIYw4vMSc1OtFKCcnMziktQ8oNrS4tQioJrMPCC3xEohvSg1taSWgBmlJSWpRfGJxdlgPpmGEHBIYl5xOdASsAVEOQdsaXx5ZkkGDlehmBgLAOACcbI=": "action_listen",
    "eJydjlEKhDAMRK/SA3iCXkWWUNywW9RUktR+lN59S/VXqvs3A8ObN+YymLwx7uAm9YGsyUcAcitac5bFiyLVbRTkuvFUq1rzYUQtHUZURQYnc+t/QjoijiTVk3ZwS6edQvL6vbB6QOy4rUgRNg7vOKmU8voB8z6O9w==": "action_resources_list",
    "eJydjlsKwjAURLeSBbiCbKVICOmgQXtT7sN+hO7dEPsrqf7NwHDmTHW/uLoyXiEmzYW8q58QKC7w7ijPLApqWxNw22RqVb27MaD7gGGq4BDl0fufkIFIJNnaST84pdNPw5b1/sXqB+LAbQFZWLnMllROshhSjBOkU4fM6xszf6+j": "action_listen",
    "eJytkVEKwjAMhq/SA3iCXkUk1C5o0aUjSR1SdndD9XV0G77lh/D9X8i5LidXJ8YXhKgpk3f1OwCFEb37hWcSRbLdIsi2k8iiendjRF06jKKKDEEeLR+EdEQCyWwlrWCTTiuFOel9xWoHseM2IhWYOA8lqmxkMUouHFEa9T/M1SfmPFzfduXlA+Quykk=": "utter_goodbye_with_name",
    "eJytkVEKAjEMRK/SA3iCXkWk1G7Q4m6yJKmLlL27pSv+ra3iXwaGN8PkmNeDyTPD3fmgkdCavB0O/QTWvMQYRQGLNwlw8UQsUq25MICuDUZSBXZeblX/CGkU8ShLCakBXXVqqFuiXndafUFsdJsAk5uZhhRUOlkMQokDSKX+h7n7RKLh/OjdbTN/Wu7NOz0B9K7pGg==": "action_listen",
    "eJydkFEKgCAQRK/iATqBV4kQq6WkWkPXJKS7t1i/YfW3D4Y3w9bpqERaHWxKd2QsSpGuQ6FeQIobZuMJkLPBg+OMQUaSYnAAdBQcgQic0n7K/FNSGKLRRy7JBa/m5FIVDY0Pqz4YS0+ytm93tjQnn9uMWA==": "utter_goodbye_with_name",
    "eJydkFEKgCAQRK/iATqBV4kQq6WkWkO3IqS7Jxr9ldbfDgxvHlu6o2BuNrAK2ZDSyJmLh0A5AWdXGJUlQN9dLBjfUegjcdYZADoSjIUIjJB2CPknJCEi0W5+JAxk6YRRsSnqH6w+EFNP0rqt91yvWH4zu3nVCVPuqyk=": "action_listen"
  }
}